{
  "ID": 2,
  "objectID": 2,
  "manufacturer": 3,
  "model": "V3.4",
  "serial_number": "110334-7225",
  "mac_address": "00:40:42:0b:1c:39",
  "ip_address": "192.168.0.104",
  "owner": "CMSUK",
  "location": 7,
  "console_computer": 12,
  "network": 7,
  "firmware": "2.16.1",
  "documentation": 1,
  "automatic_entry": false,
  "created": "2014-09-17 12:00:00",
  "confirmed": "2014-09-17 12:00:00"
}