{
  "ID": 13,
  "objectID": 13,
  "name": "heplnw236.pp.rl.ac.uk",
  "alias": "",
  "external_network": 3,
  "ipbus_network": 2,
  "operating_system": "SL6.5",
  "documentation": 1,
  "automatic_entry": false,
  "created": "2014-09-26 11:42:00",
  "confirmed": "2014-09-26 11:42:00"
}