{
  "ID": 3,
  "objectID": 3,
  "name": "RAL_general",
  "prefix": "130.246.40",
  "netmask": "255.255.252.0",
  "automatic_entry": false,
  "created": "2014-09-17 23:58:00",
  "confirmed": "2014-09-17 23:58:00"
}