{
  "$id": "http://ral-inventory.cern.ch/schemas/rackpowersupplies.json",
  "$schema": "https://json-schema.org/draft/2019-09/schema#",
  "title": "rackpowersupplies",
  "properties": {
    "ID": {
      "type": "integer"
    },
    "objectID": {
      "type": "integer"
    },
    "name": {
      "type": "string"
    },
    "manufacturer": {
      "type": "integer",
      "$constraint": {
        "file": "suppliers",
        "column": "name"
      }
    },
    "model": {
      "type": "string"
    },
    "serial_number": {
      "type": "string"
    },
    "owner": {
      "type": "string"
    },
    "rack": {
      "type": "string"
    },
    "comment": {
      "type": "string"
    },
    "mac_address": {
      "type": "string"
    },
    "ip_address": {
      "type": "string"
    },
    "documentation": {
      "type": "integer",
      "$constraint": {
        "file": "documentation",
        "column": "name"
      }
    },
    "automatic_entry": {
      "type": "boolean"
    },
    "created": {
      "type": "string",
      "format": "date-time"
    },
    "confirmed": {
      "type": "string",
      "format": "date-time"
    }
  },
  "Category": 2
}