{
  "ID": 2,
  "objectID": 2,
  "manufacturer": 3,
  "model": "NAT-PM-DC840",
  "serial_number": "1206150184",
  "owner": "RAL",
  "location": 2,
  "slot": 2,
  "powerfeed": 1,
  "powerfeed_channel": 0,
  "firmware": "",
  "comment": "slot 5 modified",
  "documentation": 1,
  "automatic_entry": false,
  "created": "20140911",
  "confirmed": "20140911"
}