{
  "ID": 9,
  "objectID": 9,
  "manufacturer": 3,
  "model": "NAT-PM-DC840",
  "serial_number": "1206160265",
  "owner": "RAL",
  "location": 8,
  "slot": 0,
  "powerfeed": 1,
  "powerfeed_channel": 0,
  "firmware": "",
  "comment": "",
  "documentation": 1,
  "automatic_entry": false,
  "created": "20140911",
  "confirmed": "20140911"
}