{
  "ID": 10,
  "objectID": 10,
  "name": "MP7-97",
  "amctype": 6,
  "supplier": 9,
  "serial_number": "97",
  "owner": "CMS-UK",
  "location": 5,
  "slot": 9,
  "comment": "",
  "mac_address": "08:00:30:f3:03:97",
  "ip_address": "",
  "mmc_version": "",
  "firmware": "",
  "documentation": 2,
  "automatic_entry": false,
  "created": "2014-11-28 15:00:00",
  "confirmed": "2014-11-28 15:00:00"
}