{
  "ID": 8,
  "objectID": 8,
  "name": "MP7-9D",
  "amctype": 6,
  "supplier": 9,
  "serial_number": "9D",
  "owner": "CMS-UK",
  "location": 5,
  "slot": 7,
  "comment": "",
  "mac_address": "08:00:30:f3:03:9d",
  "ip_address": "",
  "mmc_version": "",
  "firmware": "",
  "documentation": 2,
  "automatic_entry": false,
  "created": "2014-11-28 15:00:00",
  "confirmed": "2014-11-28 15:00:00"
}